%YAML 1.1
%TAG !u! tag:unity3d.com,2011:
--- !u!114 &11400000
MonoBehaviour:
  m_ObjectHideFlags: 0
  m_PrefabParentObject: {fileID: 0}
  m_PrefabInternal: {fileID: 0}
  m_GameObject: {fileID: 0}
  m_Enabled: 1
  m_EditorHideFlags: 0
  m_Script: {fileID: 11500000, guid: 3c79047644d13954686fe53e3e86cd5d, type: 3}
  m_Name: PowerUpProfiles
  m_EditorClassIdentifier: 
  powerUpList:
  - type: 0
    baseCost: 0
    minimumShopLevel: 100
    canDropOnAd: 0
    sprite: {fileID: 21300000, guid: 28704fb0856133d4f934cd7cbc6063ff, type: 3}
    title: Lucky Reward
    description: Watch an Ad and get your lucky Reward!
  - type: 1
    baseCost: 200
    minimumShopLevel: 0
    canDropOnAd: 1
    sprite: {fileID: 21300000, guid: da8a82a1f4e7f924187751296088230a, type: 3}
    title: Bomb
    description: Doctors hate fireworks
  - type: 2
    baseCost: 500
    minimumShopLevel: 0
    canDropOnAd: 1
    sprite: {fileID: 21300000, guid: a71be375d58c45243b53c28dae9749b6, type: 3}
    title: Bomb x 3
    description: 3 Bomb value pack!
  - type: 3
    baseCost: 600
    minimumShopLevel: 1
    canDropOnAd: 1
    sprite: {fileID: 21300000, guid: c4165018bfaca9746a538686586e57fa, type: 3}
    title: Lighting Ball
    description: Hit two blocks in a row!
  - type: 4
    baseCost: 500
    minimumShopLevel: 0
    canDropOnAd: 1
    sprite: {fileID: 21300000, guid: 87e52e88e8c0ee94ea651212149dacae, type: 3}
    title: Fire Ball
    description: Land in style!
  - type: 5
    baseCost: 600
    minimumShopLevel: 1
    canDropOnAd: 1
    sprite: {fileID: 21300000, guid: 9acb9c4844af98d4089cecd8f0379fde, type: 3}
    title: Firefly Magnet
    description: Attracts fireflies!
  - type: 6
    baseCost: 1000
    minimumShopLevel: 2
    canDropOnAd: 1
    sprite: {fileID: 21300000, guid: 7c17cdd625bbef140ba854c9860a6900, type: 3}
    title: Strong Boot
    description: Saves you from spiky things!
  - type: 7
    baseCost: 1000
    minimumShopLevel: 2
    canDropOnAd: 1
    sprite: {fileID: 21300000, guid: 87a6990632706ed4bb932399a4732dbf, type: 3}
    title: Barrier
    description: Lets you get away with one mistake!
