# This file uses centimeters as units for non-parametric coordinates.

mtllib stone2.mtl
g default
v 0.305959 0.000050 0.417213
v -0.112356 0.248684 -0.216340
v 0.055033 0.304715 0.084007
v 0.173887 0.250050 0.283328
v -0.407885 0.146497 0.250000
v -0.203943 0.250050 0.395601
v 0.407885 0.000050 -0.200060
v 0.163203 0.132663 -0.500000
v -0.233827 -0.500000 -0.286633
v 0.091106 -0.504325 -0.286633
v 0.163203 -0.034664 -0.500000
v -0.233827 -0.385459 0.161620
v -0.407885 -0.036748 0.250000
v 0.305959 -0.286633 0.417213
v -0.203943 -0.286633 0.409498
v 0.233827 -0.500000 -0.111680
v 0.407885 -0.286633 -0.200060
v -0.407885 0.173400 -0.262126
v -0.213835 0.206703 -0.500000
v -0.213835 -0.018131 -0.500000
v -0.407885 -0.286633 -0.262126
v -0.203943 0.032697 0.500000
v -0.407885 -0.021706 -0.262126
vt 0.317107 0.166731
vt 0.375643 0.303904
vt 0.500013 0.312487
vt 0.428342 0.915405
vt 0.439487 0.996841
vt 0.625000 0.675660
vt 0.615820 0.972293
vt 0.527920 0.803342
vt 0.571658 0.847080
vt 0.800015 0.053342
vt 0.800015 0.125013
vt 0.625000 0.125013
vt 0.437494 0.053373
vt 0.437500 0.187512
vt 0.624999 0.053362
vt 0.562500 0.187512
vt 0.625000 0.475025
vt 0.439407 0.425408
vt 0.375057 0.518875
vt 0.422260 0.792253
vt 0.375186 0.911500
vt 0.184583 0.195005
vt 0.184469 0.053342
vt 0.313131 0.117335
vt 0.551117 0.572781
vt 0.550289 0.609390
vt 0.434450 0.563064
vt 0.434918 0.614887
vt 0.375000 0.773045
vt 0.437500 0.133174
vt 0.184469 0.132848
vt 0.375000 0.638614
vn 0.489844 0.856476 -0.162795
vn 0.486217 0.858526 -0.162870
vn 0.139202 0.956592 -0.256035
vn -0.365446 0.919883 -0.142354
vn -0.287807 0.955003 -0.071664
vn -0.065356 0.990683 0.119482
vn -0.012129 -0.408197 -0.912813
vn -0.012129 -0.408197 -0.912813
vn -0.012129 -0.408197 -0.912813
vn -0.012129 -0.408197 -0.912813
vn 0.528672 -0.495118 -0.689466
vn 0.528672 -0.495119 -0.689466
vn 0.528672 -0.495118 -0.689466
vn 0.528672 -0.495118 -0.689466
vn -0.823784 -0.485410 0.292843
vn -0.823784 -0.485410 0.292843
vn -0.823784 -0.485410 0.292843
vn 0.794092 -0.593485 0.131123
vn 0.794092 -0.593485 0.131123
vn 0.794092 -0.593485 0.131123
vn -0.012895 -0.968789 0.247552
vn -0.095772 -0.977161 0.189695
vn -0.021180 -0.943641 0.330294
vn 0.986640 0.000000 0.162917
vn 0.986640 0.000000 0.162917
vn 0.986640 0.000000 0.162917
vn 0.986640 0.000000 0.162917
vn -0.738272 0.048436 0.672762
vn -0.735801 -0.184653 0.651537
vn -0.739530 0.030428 0.672435
vn 0.120213 0.072075 0.990128
vn 0.136770 0.146616 0.979693
vn 0.067921 -0.147360 0.986748
vn 0.067921 -0.147360 0.986748
vn -1.000000 0.000000 0.000000
vn -1.000000 0.000000 0.000000
vn -1.000000 0.000000 0.000000
vn 0.774872 0.000000 -0.632118
vn 0.774872 0.000000 -0.632118
vn 0.774872 0.000000 -0.632118
vn -0.804287 -0.559626 0.199854
vn -0.755399 -0.634866 0.162225
vn -0.825971 -0.519837 0.218040
vn -0.774872 0.000000 -0.632118
vn -0.732869 -0.069914 -0.676769
vn -0.603991 -0.237489 -0.760785
vn -0.514904 -0.329127 -0.791548
vn 0.067271 0.971712 0.226384
vn 0.758307 0.651194 0.030296
vn 0.658469 0.749571 -0.067543
vn 0.842866 0.519814 0.139177
vn 0.204244 0.489847 0.847546
vn 0.204244 0.489847 0.847546
vn -0.722656 0.174312 0.668868
vn -0.722656 0.174312 0.668868
vn -1.000000 0.000000 0.000000
vn -1.000000 0.000000 0.000000
vn -0.774872 0.000000 -0.632118
vn -0.774872 0.000000 -0.632118
vn 0.000000 0.000000 -1.000000
vn 0.000000 0.000000 -1.000000
vn 0.092639 0.471755 -0.876850
vn 0.051349 0.261489 -0.963840
vn 0.774872 0.000000 -0.632118
vn 0.188419 0.959502 -0.209413
vn -0.051504 -0.949415 0.309772
vn -0.007531 -0.927228 0.374421
vn -0.844651 -0.481102 0.234747
vn -0.005612 -0.928648 0.370919
vn -0.278934 0.960266 0.009203
vn -0.272592 0.962077 0.010084
vn -0.248784 0.968466 0.013374
vn -0.248784 0.968466 0.013374
vn -0.322418 0.946592 0.003101
s 1
g pCube1
usemtl initialShadingGroup
f 3/3/1 8/25/2 2/18/3
s 2
f 5/2/4 6/14/5 3/3/6
s off
f 9/20/7 20/28/8 11/26/9 10/8/10
f 10/8/11 11/26/12 17/6/13 16/9/14
f 13/21/15 12/4/16 15/5/17
f 14/7/18 16/9/19 17/6/20
s 3
f 9/20/21 10/8/22 12/4/23
s off
f 14/15/24 17/10/25 7/11/26 1/12/27
s 4
f 13/24/28 15/13/29 22/30/30
s 5
f 1/12/31 22/30/32 15/13/33 14/15/34
s 6
f 13/24/35 23/31/36 21/23/37
s 7
f 17/6/38 11/26/39 7/17/40
s 8
f 21/29/41 9/20/42 12/4/43
s 9
f 23/32/44 20/28/45 21/29/46
f 20/28/45 9/20/47 21/29/46
s 2
f 3/3/6 6/14/5 4/16/48
s 1
f 3/3/1 4/16/49 7/17/50
f 7/17/50 4/16/49 1/12/51
f 3/3/1 7/17/50 8/25/2
s 5
f 6/14/52 22/30/32 1/12/31 4/16/53
s 4
f 13/24/28 22/30/30 6/14/54 5/1/55
s 6
f 5/1/56 18/22/57 23/31/36 13/24/35
s 9
f 18/19/58 19/27/59 20/28/45 23/32/44
s 11
f 11/26/60 20/28/61 19/27/62 8/25/63
s 7
f 7/17/40 11/26/39 8/25/64
s 11
f 8/25/63 19/27/62 2/18/65
s 3
f 12/4/23 16/9/66 14/7/67
f 12/4/23 10/8/22 16/9/66
s 8
f 21/29/41 12/4/43 13/21/68
s 3
f 12/4/23 14/7/67 15/5/69
s 12
f 5/2/70 2/18/71 19/27/72 18/19/73
f 3/3/74 2/18/71 5/2/70
