%YAML 1.1
%TAG !u! tag:unity3d.com,2011:
--- !u!1001 &100100000
Prefab:
  m_ObjectHideFlags: 1
  serializedVersion: 2
  m_Modification:
    m_TransformParent: {fileID: 0}
    m_Modifications: []
    m_RemovedComponents: []
  m_ParentPrefab: {fileID: 0}
  m_RootGameObject: {fileID: 1724353102055772}
  m_IsPrefabParent: 1
--- !u!1 &1724353102055772
GameObject:
  m_ObjectHideFlags: 0
  m_PrefabParentObject: {fileID: 0}
  m_PrefabInternal: {fileID: 100100000}
  serializedVersion: 5
  m_Component:
  - component: {fileID: 4356122183101974}
  - component: {fileID: 114731554610538156}
  m_Layer: 0
  m_Name: SoundKeeper
  m_TagString: Untagged
  m_Icon: {fileID: 0}
  m_NavMeshLayer: 0
  m_StaticEditorFlags: 0
  m_IsActive: 1
--- !u!4 &4356122183101974
Transform:
  m_ObjectHideFlags: 1
  m_PrefabParentObject: {fileID: 0}
  m_PrefabInternal: {fileID: 100100000}
  m_GameObject: {fileID: 1724353102055772}
  m_LocalRotation: {x: -0, y: -0, z: -0, w: 1}
  m_LocalPosition: {x: 0, y: -3.47, z: -10}
  m_LocalScale: {x: 1, y: 1, z: 1}
  m_Children: []
  m_Father: {fileID: 0}
  m_RootOrder: 0
  m_LocalEulerAnglesHint: {x: 0, y: 0, z: 0}
--- !u!114 &114731554610538156
MonoBehaviour:
  m_ObjectHideFlags: 1
  m_PrefabParentObject: {fileID: 0}
  m_PrefabInternal: {fileID: 100100000}
  m_GameObject: {fileID: 1724353102055772}
  m_Enabled: 1
  m_EditorHideFlags: 0
  m_Script: {fileID: 11500000, guid: 31c5ebef0def92344885d6566ecfdbff, type: 3}
  m_Name: 
  m_EditorClassIdentifier: 
  bg_ambient:
    ats: {fileID: 11400000, guid: f10bb992de9665c4087caa61e8e822e8, type: 2}
  bg_shop:
    ats: {fileID: 11400000, guid: 9b42579cc67f10e49aa710202eaedfe7, type: 2}
  bg_menu:
    ats: {fileID: 11400000, guid: 47afb55566195ff4cb54235191ba38ed, type: 2}
  hero_walking:
    ats: {fileID: 11400000, guid: 2682af774db116d4ab7bd377d37b7695, type: 2}
  hero_lightningambience:
    ats: {fileID: 11400000, guid: 93f4d6128779adf46b43b48b36d1e51e, type: 2}
  boss_flying:
    ats: {fileID: 11400000, guid: 763c32f55fab7744bb0db5ad379d161e, type: 2}
  hit_concreate: {fileID: 11400000, guid: 783146f1df027f64b8cd52386de1c6d9, type: 2}
  hit_shatter: {fileID: 11400000, guid: 05f7deff3bcba1e4d95802f642b79ef3, type: 2}
  hit_cart: {fileID: 11400000, guid: 6661aa769359fff47898a138a21cfb7f, type: 2}
  hit_body: {fileID: 11400000, guid: c91267fa58a86e94d92513c916d955f8, type: 2}
  hit_butterfly: {fileID: 11400000, guid: b545559f8720eb7439011b1822a17939, type: 2}
  hero_swish: {fileID: 11400000, guid: d73e6b992eae87945b8470a4380335bd, type: 2}
  hero_lightningAttack: {fileID: 11400000, guid: 1b056b050eb3bd24ab8747b4598fdd83,
    type: 2}
  hero_fireLanding: {fileID: 11400000, guid: b649311da83a0844ca3adcd070dc6a54, type: 2}
  character_landing: {fileID: 11400000, guid: e037ac452e71211468c9ac725b857485, type: 2}
  guard_attack: {fileID: 11400000, guid: a4bbb5d880945974d9bb31549706dde7, type: 2}
  dog_attack: {fileID: 11400000, guid: 55ac13d4148347d43af063d79d644417, type: 2}
  spider_attack: {fileID: 11400000, guid: 4500211f576dee148b0f47b87d50f0af, type: 2}
  porcupine_attack: {fileID: 11400000, guid: b70a3c98f9a52694c908abb3ae1d3774, type: 2}
  nurse_attack: {fileID: 11400000, guid: f7636d5bbde2a1640a105176ea0c44c1, type: 2}
  nurse_attackgas: {fileID: 11400000, guid: 61a59ab972418bd449817566234d5092, type: 2}
  death_Guard: {fileID: 11400000, guid: da13c795d004ac346abf0140e8b4f568, type: 2}
  death_Dog: {fileID: 11400000, guid: c228a5e242744e241b53eee1f28e6750, type: 2}
  death_Spider: {fileID: 11400000, guid: 50c457ee46797fc49b41f392d47c3adc, type: 2}
  death_Porcu: {fileID: 11400000, guid: 40cbe92fdd750b14abd76e27e57f5a43, type: 2}
  death_Nurse: {fileID: 11400000, guid: 20aa1f54f00029946a969480eb29a58e, type: 2}
  next_level: {fileID: 11400000, guid: f58fea3f0032c994cbe9791403dc911a, type: 2}
  poison_shoot: {fileID: 11400000, guid: 778e5211ae2e16e4ab6b76abd426ea57, type: 2}
  poison_explode: {fileID: 11400000, guid: 1cc67330e59f2ba4dbf195cd7a4f5018, type: 2}
  boss_attack: {fileID: 11400000, guid: 765c4397088fe8446841c3b91612dd96, type: 2}
  piston_hit: {fileID: 11400000, guid: acfda3451ac4ea645a95b8a918af3a95, type: 2}
  fragile_brick: {fileID: 11400000, guid: 97575d41783bad941bdbc02d369568e5, type: 2}
  hero_newpowerup: {fileID: 11400000, guid: 8f0bd493ae86b164f8799c187ac46701, type: 2}
  ui_tap: {fileID: 11400000, guid: 2400c536c0bbb5145a99d9f076b8b00c, type: 2}
