%YAML 1.1
%TAG !u! tag:unity3d.com,2011:
--- !u!114 &11400000
MonoBehaviour:
  m_ObjectHideFlags: 0
  m_PrefabParentObject: {fileID: 0}
  m_PrefabInternal: {fileID: 0}
  m_GameObject: {fileID: 0}
  m_Enabled: 1
  m_EditorHideFlags: 0
  m_Script: {fileID: 11500000, guid: dda7f40489985d545a228894ce58b07f, type: 3}
  m_Name: Level008
  m_EditorClassIdentifier: 
  levelNo: 2
  colCount: 7
  rowCount: 60
  transitionRows: 30
  pseudoSize: 5
  pseudoStrength: 4
  butterflyCount: 9
  randomEnemySpwnChance: 0.05
  hayCartSpwnChance: 0.05
  mandatoryList: 01000000
  optionalList: 0200000004000000080000000008000000100000002000000040000000800000
  maxChallengeTypes: 9
  minChallengeTypes: 9
