%YAML 1.1
%TAG !u! tag:unity3d.com,2011:
--- !u!114 &11400000
MonoBehaviour:
  m_ObjectHideFlags: 0
  m_PrefabParentObject: {fileID: 0}
  m_PrefabInternal: {fileID: 0}
  m_GameObject: {fileID: 0}
  m_Enabled: 1
  m_EditorHideFlags: 0
  m_Script: {fileID: 11500000, guid: dda7f40489985d545a228894ce58b07f, type: 3}
  m_Name: Level005
  m_EditorClassIdentifier: 
  colCount: 5
  rowCount: 55
  transitionRows: 30
  pseudoSize: 5
  pseudoStrength: 4
  butterflyCount: 9
  hayCartSpwnChance: 0.05
  forceRandomEnemyChance: -1
  mandatoryList: 0100000000400000
  optionalList: 020000000400000008000000000800000010000000200000
  maxChallengeTypes: 5
  minChallengeTypes: 4
