%YAML 1.1
%TAG !u! tag:unity3d.com,2011:
--- !u!114 &11400000
MonoBehaviour:
  m_ObjectHideFlags: 0
  m_PrefabParentObject: {fileID: 0}
  m_PrefabInternal: {fileID: 0}
  m_GameObject: {fileID: 0}
  m_Enabled: 1
  m_EditorHideFlags: 0
  m_Script: {fileID: 11500000, guid: 2a183719fbe311d45839dce742891cf8, type: 3}
  m_Name: fragile_brick
  m_EditorClassIdentifier: 
  clipList:
  - clip: {fileID: 8300000, guid: 74a996209c835614f8206dae2606c623, type: 3}
    volume: 1
  - clip: {fileID: 8300000, guid: 55550468bf9e22e458dad86dff430846, type: 3}
    volume: 1
